Babel==2.1.1
Django==1.7.1
Fabric==1.10.1
Markdown==2.5.1
MySQL-python==1.2.5
Pillow==2.8.1
PyJWT==0.4.1
PyYAML==3.11
Unidecode==0.04.18
amqp==1.4.8
anyjson==0.3.3
backports-abc==0.4
backports.ssl-match-hostname==3.4.0.2
billiard==3.3.0.22
celery==3.1.17
certifi==2015.11.20.1
coverage==3.7.1
django-celery==3.1.16
django-cors-headers==1.0.0
django-filter==0.8
django-fsm==2.2.0
django-hstore==1.4.1
django-nose==1.4.2
django-rest-swagger==0.3.4
django-uuidfield==0.5.0
djangorestframework==3.0.5
djangorestframework-jwt==1.2.0
ecdsa==0.13
firebase-token-generator==2.0.1
flake8==2.3.0
flower==0.8.3
funcsigs==0.4
futures==3.0.3
httplib2==0.9.2
inflection==0.3.1
kombu==3.0.32
librabbitmq==1.6.1
mccabe==0.3
mock==1.3.0
nose==1.3.7
paramiko==1.15.2
pbr==1.8.1
pep8==1.6.1
psycopg2==2.6.1
pyasn1==0.1.9
pycrypto==2.6.1
pyflakes==0.8.1
python-dateutil==2.4.2
python-firebase==1.2
python-intercom==2.1.1
python-keyczar==0.71c
pytz==2015.7
requests==2.5.1
selenium==2.48.0
simple-salesforce==0.65.1
singledispatch==3.4.0.3
six==1.10.0
splinter==0.7.3
stripe==1.27.1
tornado==4.3
twilio==5.2.0
wsgiref==0.1.2
